<?xml version="1.0" encoding="UTF-8" standalone="no"?>
<!-- Created with Inkscape (http://www.inkscape.org/) -->
<svg xmlns:dc="http://purl.org/dc/elements/1.1/" xmlns:cc="http://creativecommons.org/ns#" xmlns:rdf="http://www.w3.org/1999/02/22-rdf-syntax-ns#" xmlns:svg="http://www.w3.org/2000/svg" xmlns="http://www.w3.org/2000/svg" xmlns:sodipodi="http://sodipodi.sourceforge.net/DTD/sodipodi-0.dtd" xmlns:inkscape="http://www.inkscape.org/namespaces/inkscape" width="298.1442mm" height="25.501881mm" viewBox="0 0 298.14419 25.501881" version="1.1" id="svg8">
  <defs id="defs2">
    <marker orient="auto" refY="0" refX="0" id="Arrow2Send" style="overflow:visible">
      <path id="path854" style="fill:#000000;fill-opacity:1;fill-rule:evenodd;stroke:#000000;stroke-width:0.625;stroke-linejoin:round;stroke-opacity:1" d="M 8.7185878,4.0337352 -2.2072895,0.01601326 8.7185884,-4.0017078 c -1.7454984,2.3720609 -1.7354408,5.6174519 -6e-7,8.035443 z" transform="matrix(-0.3,0,0,-0.3,0.69,0)"/>
    </marker>
    <marker orient="auto" refY="0" refX="0" id="Arrow1Send" style="overflow:visible">
      <path id="path836" d="M 0,0 5,-5 -12.5,0 5,5 Z" style="fill:#000000;fill-opacity:1;fill-rule:evenodd;stroke:#000000;stroke-width:1.00000003pt;stroke-opacity:1" transform="matrix(-0.2,0,0,-0.2,-1.2,0)"/>
    </marker>
    <marker orient="auto" refY="0" refX="0" id="Arrow1Lend" style="overflow:visible">
      <path id="path824" d="M 0,0 5,-5 -12.5,0 5,5 Z" style="fill:#000000;fill-opacity:1;fill-rule:evenodd;stroke:#000000;stroke-width:1.00000003pt;stroke-opacity:1" transform="matrix(-0.8,0,0,-0.8,-10,0)"/>
    </marker>
    <marker orient="auto" refY="0" refX="0" id="Arrow2Send-3" style="overflow:visible">
      <path id="path854-6" style="fill:#000000;fill-opacity:1;fill-rule:evenodd;stroke:#000000;stroke-width:0.625;stroke-linejoin:round;stroke-opacity:1" d="M 8.7185878,4.0337352 -2.2072895,0.01601326 8.7185884,-4.0017078 c -1.7454984,2.3720609 -1.7354408,5.6174519 -6e-7,8.035443 z" transform="matrix(-0.3,0,0,-0.3,0.69,0)"/>
    </marker>
    <marker orient="auto" refY="0" refX="0" id="Arrow2Send-3-6" style="overflow:visible">
      <path id="path854-6-2" style="fill:#000000;fill-opacity:1;fill-rule:evenodd;stroke:#000000;stroke-width:0.625;stroke-linejoin:round;stroke-opacity:1" d="M 8.7185878,4.0337352 -2.2072895,0.01601326 8.7185884,-4.0017078 c -1.7454984,2.3720609 -1.7354408,5.6174519 -6e-7,8.035443 z" transform="matrix(-0.3,0,0,-0.3,0.69,0)"/>
    </marker>
    <marker orient="auto" refY="0" refX="0" id="Arrow2Send-3-0" style="overflow:visible">
      <path id="path854-6-9" style="fill:#000000;fill-opacity:1;fill-rule:evenodd;stroke:#000000;stroke-width:0.625;stroke-linejoin:round;stroke-opacity:1" d="M 8.7185878,4.0337352 -2.2072895,0.01601326 8.7185884,-4.0017078 c -1.7454984,2.3720609 -1.7354408,5.6174519 -6e-7,8.035443 z" transform="matrix(-0.3,0,0,-0.3,0.69,0)"/>
    </marker>
    <marker orient="auto" refY="0" refX="0" id="Arrow2Send-3-2" style="overflow:visible">
      <path id="path854-6-6" style="fill:#000000;fill-opacity:1;fill-rule:evenodd;stroke:#000000;stroke-width:0.625;stroke-linejoin:round;stroke-opacity:1" d="M 8.7185878,4.0337352 -2.2072895,0.01601326 8.7185884,-4.0017078 c -1.7454984,2.3720609 -1.7354408,5.6174519 -6e-7,8.035443 z" transform="matrix(-0.3,0,0,-0.3,0.69,0)"/>
    </marker>
    <marker orient="auto" refY="0" refX="0" id="Arrow2Send-3-2-5" style="overflow:visible">
      <path id="path854-6-6-9" style="fill:#000000;fill-opacity:1;fill-rule:evenodd;stroke:#000000;stroke-width:0.625;stroke-linejoin:round;stroke-opacity:1" d="M 8.7185878,4.0337352 -2.2072895,0.01601326 8.7185884,-4.0017078 c -1.7454984,2.3720609 -1.7354408,5.6174519 -6e-7,8.035443 z" transform="matrix(-0.3,0,0,-0.3,0.69,0)"/>
    </marker>
  </defs>
  
  <metadata id="metadata5">
    
  </metadata>
  <g id="layer1" transform="translate(3.5785012,-135.74906)">
    <circle style="opacity:1;vector-effect:none;fill:#000000;fill-opacity:1;fill-rule:nonzero;stroke:#000000;stroke-width:1.3769325;stroke-linecap:butt;stroke-linejoin:round;stroke-miterlimit:4;stroke-dasharray:none;stroke-dashoffset:0;stroke-opacity:1;paint-order:normal" id="path10" cx="5.973609" cy="148.5" r="3.8636439"/>
    <path style="fill:none;fill-rule:evenodd;stroke:#000000;stroke-width:1.70000005;stroke-linecap:butt;stroke-linejoin:miter;stroke-miterlimit:4;stroke-dasharray:none;stroke-opacity:1;marker-end:url(#Arrow2Send)" d="M 8.8467559,148.50817 H 19.002997" id="path12"/>
    <rect style="opacity:1;vector-effect:none;fill:#ffffff;fill-opacity:1;fill-rule:nonzero;stroke:#000000;stroke-width:0.79732406;stroke-linecap:butt;stroke-linejoin:round;stroke-miterlimit:4;stroke-dasharray:none;stroke-dashoffset:0;stroke-opacity:1;paint-order:normal" id="rect1281" width="34.776615" height="10.202676" x="22.94754" y="143.6496"/>
    <text xml:space="preserve" style="font-style:normal;font-weight:normal;font-size:10.58333302px;line-height:6.61458302px;font-family:Sans;letter-spacing:0px;word-spacing:0px;fill:#000000;fill-opacity:1;stroke:none;stroke-width:0.26458332px;stroke-linecap:butt;stroke-linejoin:miter;stroke-opacity:1" x="24.818171" y="151.2137" id="text1285"><tspan id="tspan1283" x="24.818171" y="151.2137" style="font-style:normal;font-variant:normal;font-weight:600;font-stretch:normal;font-size:7.05555534px;font-family:'Fira Sans';-inkscape-font-specification:'Fira Sans Semi-Bold';stroke-width:0.26458332px">Configure</tspan></text>
    <path style="fill:none;fill-rule:evenodd;stroke:#000000;stroke-width:1.70000005;stroke-linecap:butt;stroke-linejoin:miter;stroke-miterlimit:4;stroke-dasharray:none;stroke-opacity:1;marker-end:url(#Arrow2Send-3)" d="M 58.917356,148.50817 H 69.073598" id="path12-7"/>
    <rect style="opacity:1;vector-effect:none;fill:#ffffff;fill-opacity:1;fill-rule:nonzero;stroke:#000000;stroke-width:0.7905491;stroke-linecap:butt;stroke-linejoin:round;stroke-miterlimit:4;stroke-dasharray:none;stroke-dashoffset:0;stroke-opacity:1;paint-order:normal" id="rect1281-5" width="20.566429" height="10.209451" x="72.022079" y="143.64621"/>
    <text xml:space="preserve" style="font-style:normal;font-weight:normal;font-size:10.58333302px;line-height:6.61458349px;font-family:Sans;letter-spacing:0px;word-spacing:0px;fill:#000000;fill-opacity:1;stroke:none;stroke-width:0.26458332px;stroke-linecap:butt;stroke-linejoin:miter;stroke-opacity:1" x="73.990395" y="151.53825" id="text1285-3"><tspan id="tspan1283-5" x="73.990395" y="151.53825" style="font-style:normal;font-variant:normal;font-weight:600;font-stretch:normal;font-size:7.05555534px;font-family:'Fira Sans';-inkscape-font-specification:'Fira Sans Semi-Bold';stroke-width:0.26458332px">Build</tspan></text>
    <path style="fill:none;fill-rule:evenodd;stroke:#000000;stroke-width:1.70000005;stroke-linecap:butt;stroke-linejoin:miter;stroke-miterlimit:4;stroke-dasharray:none;stroke-opacity:1;marker-end:url(#Arrow2Send-3-6)" d="M 93.605139,148.50817 H 103.76136" id="path12-7-9"/>
    <rect style="opacity:1;vector-effect:none;fill:#ffffff;fill-opacity:1;fill-rule:nonzero;stroke:#000000;stroke-width:0.80283767;stroke-linecap:butt;stroke-linejoin:round;stroke-miterlimit:4;stroke-dasharray:none;stroke-dashoffset:0;stroke-opacity:1;paint-order:normal" id="rect1281-5-1" width="48.790161" height="10.197163" x="107.03724" y="143.65236"/>
    <text xml:space="preserve" style="font-style:normal;font-weight:normal;font-size:10.58333302px;line-height:6.61458349px;font-family:Sans;letter-spacing:0px;word-spacing:0px;fill:#000000;fill-opacity:1;stroke:none;stroke-width:0.26458332px;stroke-linecap:butt;stroke-linejoin:miter;stroke-opacity:1" x="108.79162" y="151.2137" id="text1285-3-2"><tspan id="tspan1283-5-7" x="108.79162" y="151.2137" style="font-style:normal;font-variant:normal;font-weight:600;font-stretch:normal;font-size:7.05555534px;font-family:'Fira Sans';-inkscape-font-specification:'Fira Sans Semi-Bold';stroke-width:0.26458332px">Upload to EOS</tspan></text>
    <path style="fill:none;fill-rule:evenodd;stroke:#000000;stroke-width:1.70000005;stroke-linecap:butt;stroke-linejoin:miter;stroke-miterlimit:4;stroke-dasharray:none;stroke-opacity:1;marker-end:url(#Arrow2Send-3-0)" d="m 157.38183,148.50817 h 10.15624" id="path12-7-3"/>
    <rect style="opacity:1;vector-effect:none;fill:#ffffff;fill-opacity:1;fill-rule:nonzero;stroke:#000000;stroke-width:0.80571282;stroke-linecap:butt;stroke-linejoin:round;stroke-miterlimit:4;stroke-dasharray:none;stroke-dashoffset:0;stroke-opacity:1;paint-order:normal" id="rect1281-5-6" width="56.964714" height="10.194287" x="170.91783" y="143.65379"/>
    <text xml:space="preserve" style="font-style:normal;font-weight:normal;font-size:10.58333302px;line-height:6.61458349px;font-family:Sans;letter-spacing:0px;word-spacing:0px;fill:#000000;fill-opacity:1;stroke:none;stroke-width:0.26458332px;stroke-linecap:butt;stroke-linejoin:miter;stroke-opacity:1" x="172.60605" y="151.2137" id="text1285-3-0"><tspan id="tspan1283-5-6" x="172.60605" y="151.2137" style="font-style:normal;font-variant:normal;font-weight:600;font-stretch:normal;font-size:7.05555534px;font-family:'Fira Sans';-inkscape-font-specification:'Fira Sans Semi-Bold';stroke-width:0.26458332px">Deploy to CVMFS</tspan></text>
    <path style="fill:none;fill-rule:evenodd;stroke:#000000;stroke-width:1.70000005;stroke-linecap:butt;stroke-linejoin:miter;stroke-miterlimit:4;stroke-dasharray:none;stroke-opacity:1;marker-end:url(#Arrow2Send-3-2)" d="m 229.1048,148.50817 h 10.15624" id="path12-7-1"/>
    <rect style="opacity:1;vector-effect:none;fill:#ffffff;fill-opacity:1;fill-rule:nonzero;stroke:#000000;stroke-width:0.78886706;stroke-linecap:butt;stroke-linejoin:round;stroke-miterlimit:4;stroke-dasharray:none;stroke-dashoffset:0;stroke-opacity:1;paint-order:normal" id="rect1281-5-8" width="17.550085" height="10.211133" x="242.90349" y="143.64537"/>
    <text xml:space="preserve" style="font-style:normal;font-weight:normal;font-size:10.58333302px;line-height:6.61458349px;font-family:Sans;letter-spacing:0px;word-spacing:0px;fill:#000000;fill-opacity:1;stroke:none;stroke-width:0.26458332px;stroke-linecap:butt;stroke-linejoin:miter;stroke-opacity:1" x="244.84599" y="151.28424" id="text1285-3-7"><tspan id="tspan1283-5-9" x="244.84599" y="151.28424" style="font-style:normal;font-variant:normal;font-weight:600;font-stretch:normal;font-size:7.05555534px;font-family:'Fira Sans';-inkscape-font-specification:'Fira Sans Semi-Bold';stroke-width:0.26458332px">Test</tspan></text>
    <circle style="opacity:1;vector-effect:none;fill:#000000;fill-opacity:1;fill-rule:nonzero;stroke:#000000;stroke-width:1.3769325;stroke-linecap:butt;stroke-linejoin:round;stroke-miterlimit:4;stroke-dasharray:none;stroke-dashoffset:0;stroke-opacity:1;paint-order:normal" id="path10-2" cx="281.81476" cy="148.5" r="3.8636439"/>
    <circle style="opacity:1;vector-effect:none;fill:none;fill-opacity:1;fill-rule:nonzero;stroke:#000000;stroke-width:2;stroke-linecap:butt;stroke-linejoin:round;stroke-miterlimit:4;stroke-dasharray:none;stroke-dashoffset:0;stroke-opacity:1;paint-order:normal" id="path10-2-0" cx="281.81476" cy="148.5" r="6.7509398"/>
    <path style="fill:none;fill-rule:evenodd;stroke:#000000;stroke-width:1.70000005;stroke-linecap:butt;stroke-linejoin:miter;stroke-miterlimit:4;stroke-dasharray:none;stroke-opacity:1;marker-end:url(#Arrow2Send-3-2-5)" d="m 261.8656,148.50817 h 10.15624" id="path12-7-1-2"/>
  </g>
</svg>
